fr\afpa\lab\spring\LabSpring_Bruno\beans\Personne.class
fr\afpa\lab\spring\LabSpring_Bruno\service\Service1.class
fr\afpa\lab\spring\LabSpring_Bruno\controller\App.class
fr\afpa\lab\spring\LabSpring_Bruno\dao\DaoVille.class
fr\afpa\lab\spring\LabSpring_Bruno\dao\DaoPersonne.class
fr\afpa\lab\spring\LabSpring_Bruno\service\IService.class
fr\afpa\lab\spring\LabSpring_Bruno\beans\Ville.class
fr\afpa\lab\spring\LabSpring_Bruno\service\ServiceExterne.class
fr\afpa\lab\spring\LabSpring_Bruno\dao\DaoVoiture.class
fr\afpa\lab\spring\LabSpring_Bruno\config\AppConfiguration.class
fr\afpa\lab\spring\LabSpring_Bruno\beans\Voiture.class
